{
  "count": 606,
  "next": "https://nineoneeightstaging.herokuapp.com/inspirations/?page=2",
  "previous": null,
  "results": [
    {
      "uuid": "80345b3e-4202-4c7f-bed7-e3a8a0d151ad",
      "ref_img": "https://i.pinimg.com/564x/54/37/26/543726f2afdb00c497632eabe19a132d.jpg",
      "ref_url": "https://www.pinterest.com/pin/838232549383531523/",
      "rooms": [1, 2, 3, 4, 5, 6, 7, 8],
      "styles": [1, 2, 3, 5, 6, 7, 8, 9, 11, 12],
      "direction": "portrait",
      "designed_by": "Clare"
    },
    {
      "uuid": "98784465-8f4d-42a5-aa9d-abe4f4b001e6",
      "ref_img": "https://i.pinimg.com/564x/aa/f6/e2/aaf6e20ab1d221fd28e35eb740d11390.jpg",
      "ref_url": "https://claytongrayhome.com/products/palecek-quinn-chandelier",
      "rooms": [5],
      "styles": [4, 5],
      "direction": "landscape",
      "designed_by": "Clayton Gray Home"
    },
    {
      "uuid": "2e323186-c47b-448e-ab17-3eb4bd16fb01",
      "ref_img": "https://i.pinimg.com/564x/c3/40/fc/c340fc8a8c41d21bb73d7bad54f92ea4.jpg",
      "ref_url": "https://www.pinterest.com/pin/365213851028686059/",
      "rooms": [1],
      "styles": [7, 12],
      "direction": "portrait",
      "designed_by": "Burke Decor"
    },
    {
      "uuid": "d19189e8-b210-4b4f-821e-49839e6db33a",
      "ref_img": "https://katelesterinteriors.com/wp-content/uploads/2019/11/HerAve29.jpg",
      "ref_url": "https://katelesterinteriors.com/hermosa-avenue/",
      "rooms": [2],
      "styles": [1, 2],
      "direction": "portrait",
      "designed_by": "Kate Lester Interiors"
    },
    {
      "uuid": "839ab2ef-d766-4b40-aa6f-69945f100773",
      "ref_img": "https://magnolia.com/wp-content/uploads/2017/12/image11-2.jpg?x42711",
      "ref_url": "https://magnolia.com/wp-content/uploads/2017/12/image11-2.jpg?x42711",
      "rooms": [5],
      "styles": [1, 7],
      "direction": null,
      "designed_by": "Joanna Gaines"
    },
    {
      "uuid": "99bb7e1a-ecfb-4bfb-afd2-a19fa8463f07",
      "ref_img": "https://images.squarespace-cdn.com/content/v1/53744d2fe4b0a52017d9e3d4/1523051869004-HXR6PVB9JHBZTM8XEZCR/ke17ZwdGBToddI8pDm48kFI9i8PZcMdI-sW8Poga43l7gQa3H78H3Y0txjaiv_0fDoOvxcdMmMKkDsyUqMSsMWxHk725yiiHCCLfrh8O1z5QHyNOqBUUEtDDsRWrJLTmoJKo7K7P-K3iDKcb1IjyB124c9Whtfi8wGXCO1jfX9UWnl3w9fuKzBFswIce_fec/SMCalabasas4.jpg?format=1500w",
      "ref_url": "https://www.studio-mcgee.com/portfolio/2018/4/6/calabasas-remodel",
      "rooms": [5],
      "styles": [2, 11],
      "direction": "portrait",
      "designed_by": "Studio McGee"
    },
    {
      "uuid": "bd73df7f-e3dd-4a2b-be4e-53a683ae56a6",
      "ref_img": "http://amberinteriordesign.com/wp-content/uploads/2019/11/Amber-Interiors-Client-Bu-Round-Two-Tessa-Neustadt-54_700x914_acf_cropped.jpg",
      "ref_url": "http://amberinteriordesign.com/project/client-bu-round-two/",
      "rooms": [1],
      "styles": [2, 5, 11],
      "direction": "portrait",
      "designed_by": "Amber Interiors"
    },
    {
      "uuid": "d150e172-fccf-47fd-b357-89175541e3b2",
      "ref_img": "https://images.squarespace-cdn.com/content/v1/53744d2fe4b0a52017d9e3d4/1530044303548-PBFS94XB1E19R95C5W4W/ke17ZwdGBToddI8pDm48kFn01b69qibFV6p4ATINgYx7gQa3H78H3Y0txjaiv_0fDoOvxcdMmMKkDsyUqMSsMWxHk725yiiHCCLfrh8O1z5QHyNOqBUUEtDDsRWrJLTmaHJ0CCIp0h94CjFWATtzumDyWwG6cTlYaiji1mbxg2_decyTpAb-46CnvkjVgn6l/studiomcgee_calabasas2_080_preview.jpg?format=1500w",
      "ref_url": "https://www.studio-mcgee.com/studioblog/2018/6/25/calabasas-remodel-outdoor-spaces",
      "rooms": [9],
      "styles": [4, 5],
      "direction": "portrait",
      "designed_by": "Studio McGee"
    },
    {
      "uuid": "0142c0ff-1cc2-4695-96a4-4dcc02a48465",
      "ref_img": "https://i.pinimg.com/564x/6a/9b/6c/6a9b6c8de1c732c6547d1421b403b853.jpg",
      "ref_url": "https://www.pinterest.com/pin/49610033382839164/",
      "rooms": [1],
      "styles": [5, 6],
      "direction": "landscape",
      "designed_by": "RH"
    },
    {
      "uuid": "65a53f56-071f-421d-9370-f3e2a7716450",
      "ref_img": "https://magnolia.com/wp-content/uploads/2018/04/image14.jpg?x42711",
      "ref_url": "https://magnolia.com/wp-content/uploads/2018/04/image14.jpg?x42711",
      "rooms": [8],
      "styles": [1, 12],
      "direction": null,
      "designed_by": "Joanna Gaines"
    },
    {
      "uuid": "569e4c5a-eab1-4cb6-afbf-8a6ae07a2043",
      "ref_img": "https://hips.hearstapps.com/hbu.h-cdn.co/assets/16/43/andrew-howard-porch.jpg?crop=0.940xw:0.941xh;0.00340xw,0.00454xh&resize=980:*",
      "ref_url": "https://www.housebeautiful.com/room-decorating/outdoor-ideas/g853/outdoor-room-design-ideas/?source=nl&utm_source=nl_hbu&utm_medium=email&date=042720&utm_campaign=nl20118620&slide=17",
      "rooms": [9],
      "styles": [2, 5, 8],
      "direction": "portrait",
      "designed_by": "House Beautiful"
    },
    {
      "uuid": "fd6e73a1-4112-4523-9fd2-9fcef64f50cb",
      "ref_img": "https://d3tt7xf0u0byqe.cloudfront.net/media/catalog/product/cache/1/image/1000x/040ec09b1e35df139433887a97daa66f/2/0/20200109-zehra_2.0_catalog0690-crop_for_site.jpg",
      "ref_url": "https://www.luluandgeorgia.com/kye-rug-bench?utm_source=pinterest&utm_medium=catalog&pp=0&epik=dj0yJnU9bGhGQTlHMlBKMXBKUDByd2hNSFJkZmdCSm50QmZhWVgmbj1FTzgyN1JtZV9QQWFTV0FZdkN3RGZnJnQ9QUFBQUFGNTZzc3M",
      "rooms": [5],
      "styles": [3, 5, 10],
      "direction": "portrait",
      "designed_by": "Lulu & Georgia"
    },
    {
      "uuid": "7da05853-acb0-4249-95da-2d311a8c62cb",
      "ref_img": "https://images.squarespace-cdn.com/content/v1/5b58a62c4611a0092131b59c/1551383935205-ML8V9J7T31M92LTWGH33/ke17ZwdGBToddI8pDm48kG4ST2Npxk0qEika5L3MJj57gQa3H78H3Y0txjaiv_0fDoOvxcdMmMKkDsyUqMSsMWxHk725yiiHCCLfrh8O1z5QHyNOqBUUEtDDsRWrJLTmHHRMqniMJbuwH8EZRFFu5e8kc4o7xdcVfHgAWORIhF4VmJKfUxYKcCiBt0aCUS3y/GOLDMAN_4767.jpg?format=2500w",
      "ref_url": "https://interiors.kerrirosenthal.com/865004006353",
      "rooms": [7],
      "styles": [10],
      "direction": "portrait",
      "designed_by": "Kerri Rosenthal"
    },
    {
      "uuid": "ecb8e575-1c1b-4769-98db-f33109566a89",
      "ref_img": "https://i.pinimg.com/564x/35/8b/71/358b71bf3c20e44f96083d8ba4511c9c.jpg",
      "ref_url": "https://www.architecturaldigest.com/story/power-coit-spanish-colonial-retreat",
      "rooms": [1],
      "styles": [5, 10, 11],
      "direction": "portrait",
      "designed_by": "4C Design Group"
    },
    {
      "uuid": "054f34ba-1542-4fda-a74d-6d7b35300f37",
      "ref_img": "https://i.pinimg.com/564x/c0/99/58/c09958e9308667211877578843e72d3f.jpg",
      "ref_url": "https://www.pinterest.com/pin/602989837595513534/",
      "rooms": [1, 2, 3, 4, 5, 6, 7, 8],
      "styles": [1, 2, 5, 8, 11, 12],
      "direction": "portrait",
      "designed_by": "Magnolia"
    },
    {
      "uuid": "72192c50-6d52-4a1f-ad59-312aad9f972e",
      "ref_img": "https://briahammelinteriors.com/wp-content/uploads/2019/05/BH_Middleton_66-600x900.jpg",
      "ref_url": "https://briahammelinteriors.com/portfolio/the-middleton-project/",
      "rooms": [5],
      "styles": [1, 5, 8, 10],
      "direction": "portrait",
      "designed_by": "Bria Hammel Interiors"
    },
    {
      "uuid": "5292c6d6-62b5-4b56-b1d8-60cd4dfecabc",
      "ref_img": "http://amberinteriordesign.com/wp-content/uploads/2018/11/Alexander-055-e1521484624109.jpg",
      "ref_url": "http://amberinteriordesign.com/project/client-holla-at-la-jolla/",
      "rooms": [1],
      "styles": [4, 5],
      "direction": "portrait",
      "designed_by": "Amber Interiors"
    },
    {
      "uuid": "5bf302f5-a2e4-4edc-826c-abf0ffc2f289",
      "ref_img": "https://www.rcartwrightdesign.com/wordpress/wp-content/uploads/2018/09/R.Cartwright_DesMoines_143-480x720.jpg",
      "ref_url": "https://www.rcartwrightdesign.com/01-kitchens/",
      "rooms": [3],
      "styles": [1, 5, 12],
      "direction": "portrait",
      "designed_by": "R. Cartwright Designs"
    },
    {
      "uuid": "847c4829-44b4-4605-a691-3480ff02aa4c",
      "ref_img": "https://www.mydomaine.com/thmb/KALpLRRLHZR8u_SnQoSMa-w7rz4=/800x0/filters:no_upscale():max_bytes(150000):strip_icc()/cdn.cliqueinc.com__cache__posts__276262__modern-los-angeles-bungalow-276262-1547773237114-image.700x0c-7083fee27b114d3e942173d1f71268e6.jpg",
      "ref_url": "https://www.mydomaine.com/modern-los-angeles-bungalow",
      "rooms": [1],
      "styles": [3, 5],
      "direction": "portrait",
      "designed_by": "Kerry Vasquez Design"
    },
    {
      "uuid": "6d8ba264-257a-49a7-b611-3a5694852b4d",
      "ref_img": "https://www.mydomaine.com/thmb/IRtJEfT9AISk-O30I91lM9nMQBc=/800x0/filters:no_upscale():max_bytes(150000):strip_icc()/cdn.cliqueinc.com__cache__posts__img__uploads__current__images__0__213__302__main.original.700x0c-9013b1e7a3414513811758e6e3f9fee2.jpg",
      "ref_url": "https://www.mydomaine.com/eclectic-california-bungalow-home-design",
      "rooms": [1],
      "styles": [4],
      "direction": "portrait",
      "designed_by": "Amber Interiors"
    },
    {
      "uuid": "40b376d6-ba67-4661-8f09-a9f3bf236fb0",
      "ref_img": "https://images.squarespace-cdn.com/content/v1/53744d2fe4b0a52017d9e3d4/1523051920754-MEV3VLIW2W7XFWWRI352/ke17ZwdGBToddI8pDm48kFWxnDtCdRm2WA9rXcwtIYR7gQa3H78H3Y0txjaiv_0fDoOvxcdMmMKkDsyUqMSsMWxHk725yiiHCCLfrh8O1z5QPOohDIaIeljMHgDF5CVlOqpeNLcJ80NK65_fV7S1UcTSrQkGwCGRqSxozz07hWZrYGYYH8sg4qn8Lpf9k1pYMHPsat2_S1jaQY3SwdyaXg/StudioMcGeeCalabasas5.jpg?format=2500w",
      "ref_url": "https://www.studio-mcgee.com/portfolio/2018/4/6/calabasas-remodel",
      "rooms": [7],
      "styles": [4, 5, 10],
      "direction": "landscape",
      "designed_by": "Studio McGee"
    },
    {
      "uuid": "0c1035de-03fe-4592-a18d-20d60574fc22",
      "ref_img": "https://katelesterinteriors.com/wp-content/uploads/2019/11/IMG-26.jpg",
      "ref_url": "https://katelesterinteriors.com/anderson/",
      "rooms": [1],
      "styles": [5],
      "direction": "landscape",
      "designed_by": "Kate Lester Interiors"
    },
    {
      "uuid": "76a08dc6-ee96-420c-aee2-de05c501a9d5",
      "ref_img": "https://images.squarespace-cdn.com/content/v1/53744d2fe4b0a52017d9e3d4/1566254156453-6ZVKUSKP39KJKDKYQ44C/ke17ZwdGBToddI8pDm48kHqeNHunHbzCQAHAT7MPDwR7gQa3H78H3Y0txjaiv_0fDoOvxcdMmMKkDsyUqMSsMWxHk725yiiHCCLfrh8O1z5QPOohDIaIeljMHgDF5CVlOqpeNLcJ80NK65_fV7S1URT3f-1LIhDjjcNv-gDPOr0ji7t-EZxsDvhKgF-xbsh4sh_vZu_IHrh0xbom9DKbTA/studiomcgee_SMRanchHouse_047.jpg?format=1000w",
      "ref_url": "https://www.studio-mcgee.com/portfolio/2019/8/19/sm-ranch-house",
      "rooms": [3],
      "styles": [1, 5, 10],
      "direction": "landscape",
      "designed_by": "Studio McGee"
    },
    {
      "uuid": "91628a6f-8ca0-4373-8b8b-08f4c425b2ff",
      "ref_img": "https://images.squarespace-cdn.com/content/v1/53744d2fe4b0a52017d9e3d4/1440440376152-MEAJWDUI2Y0M1A3CEE3I/ke17ZwdGBToddI8pDm48kJCLrITgYwbws7fl2qSlhfQUqsxRUqqbr1mOJYKfIPR7LoDQ9mXPOjoJoqy81S2I8PaoYXhp6HxIwZIk7-Mi3Tsic-L2IOPH3Dwrhl-Ne3Z2t6B6WxdVL1WyqE-kNSJ_ZN8n0F78Z_cyHZG-x76_YLRm0nepH0bYFh4DTA4Bp5g2/Master%2BBedroom%2B7.jpg?format=750w",
      "ref_url": "https://www.studio-mcgee.com/portfolio/the-midway-house",
      "rooms": [5],
      "styles": [2, 6],
      "direction": "portrait",
      "designed_by": "Studio McGee"
    },
    {
      "uuid": "b9c4301f-cbd7-4ab9-990b-ef76233ef2a2",
      "ref_img": "https://images.squarespace-cdn.com/content/v1/53744d2fe4b0a52017d9e3d4/1566251409032-OE3F6T6FPDVKC9BSE86Z/ke17ZwdGBToddI8pDm48kHqeNHunHbzCQAHAT7MPDwR7gQa3H78H3Y0txjaiv_0fDoOvxcdMmMKkDsyUqMSsMWxHk725yiiHCCLfrh8O1z5QPOohDIaIeljMHgDF5CVlOqpeNLcJ80NK65_fV7S1URT3f-1LIhDjjcNv-gDPOr0ji7t-EZxsDvhKgF-xbsh4sh_vZu_IHrh0xbom9DKbTA/studiomcgee_northridge_001.jpg?format=2500w",
      "ref_url": "https://www.studio-mcgee.com/portfolio/2019/8/19/northridge-remodel-1",
      "rooms": [1],
      "styles": [1, 3, 5, 10],
      "direction": "landscape",
      "designed_by": "Studio McGee"
    },
    {
      "uuid": "73fc0e2f-3d93-46eb-943b-da8fc96ea42b",
      "ref_img": "https://i.pinimg.com/564x/96/c7/20/96c72018441db259d00a874b4f70bb1c.jpg",
      "ref_url": "https://www.pinterest.com/pin/827395762779436397/",
      "rooms": [1],
      "styles": [6, 11],
      "direction": "landscape",
      "designed_by": "RH"
    },
    {
      "uuid": "ee2ca774-5cde-4649-9a81-85a97a37fc7d",
      "ref_img": "http://media.virbcdn.com/cdn_images/resize_1024x1024/4d/71880312235486b7-CND_Block90-22.jpg",
      "ref_url": "http://courtneynye.com/block-90-#/id/i12948919",
      "rooms": [7],
      "styles": [6, 10],
      "direction": "portrait",
      "designed_by": "Courtney Nye Design"
    },
    {
      "uuid": "55f78066-eb9b-439b-8fe4-1cb2b4f5a35f",
      "ref_img": "https://briahammelinteriors.com/wp-content/uploads/2019/08/Iteri_Ave_020-2-600x900.jpg",
      "ref_url": "https://briahammelinteriors.com/portfolio/modern-tudor/",
      "rooms": [6],
      "styles": [1, 12],
      "direction": "portrait",
      "designed_by": "Bria Hammel Interiors"
    },
    {
      "uuid": "154ff3df-179c-4454-946d-ea21668cae2c",
      "ref_img": "https://images.squarespace-cdn.com/content/v1/53744d2fe4b0a52017d9e3d4/1566251445844-GW9AW9VL8HMIFIK7VWM3/ke17ZwdGBToddI8pDm48kI-NA-hRR9A1Yx4L4zDSBgl7gQa3H78H3Y0txjaiv_0fDoOvxcdMmMKkDsyUqMSsMWxHk725yiiHCCLfrh8O1z5QHyNOqBUUEtDDsRWrJLTmG94TGNuzCcCPVStE9JyN8KmvyUpKrFdNdgBu_gonFO-KY4FMkE2_BW0B6s3J2pdc/studiomcgee_northridge_143.jpg?format=1500w",
      "ref_url": "https://www.studio-mcgee.com/portfolio/2019/8/19/northridge-remodel-1",
      "rooms": [5],
      "styles": [2, 5],
      "direction": "portrait",
      "designed_by": "Studio McGee"
    },
    {
      "uuid": "496933e3-2db3-459d-8da9-91309483c047",
      "ref_img": "https://images.squarespace-cdn.com/content/v1/5c7d64b29b7d153b9ba999fc/1559932380230-K4OKK1HE3OHCGTDFNPSZ/ke17ZwdGBToddI8pDm48kFEm4ojFG55lQHC5TU2r3Ut7gQa3H78H3Y0txjaiv_0fDoOvxcdMmMKkDsyUqMSsMWxHk725yiiHCCLfrh8O1z5QPOohDIaIeljMHgDF5CVlOqpeNLcJ80NK65_fV7S1UfGDBYhcC1xuQQ9OxZNmKUtCuiEuVXyZ5zO2sQocyh3s7zs2yPjc1ECvpa5Zm_kMqw/8.png?format=2500w",
      "ref_url": "https://www.intimatelivinginteriors.com/beach-bungalow",
      "rooms": [3],
      "styles": [4, 5],
      "direction": "landscape",
      "designed_by": "Intimate Living Interiors"
    },
    {
      "uuid": "343fcb9f-fe7d-4489-a0dc-d9d41618b67c",
      "ref_img": "https://www.cocokelley.com/wp-content/uploads/2019/08/classic-Art-and-a-desk-in-a-sitting-room-kips-bay-showhouse-by-sarah-bArtholomew.jpg",
      "ref_url": "https://www.sarahbArtholomew.com/portfolio/kips-bay-show-house/",
      "rooms": [6],
      "styles": [11],
      "direction": null,
      "designed_by": "\nSarah Bartholomew"
    },
    {
      "uuid": "58c85856-1616-49b1-9ac3-6a025cc3bb04",
      "ref_img": "https://images.squarespace-cdn.com/content/v1/5bbbb37865a707784fbd6f1f/1547663072966-2TMK49YUHO036JZYFKHE/ke17ZwdGBToddI8pDm48kNd-dtoV3bPpmBfp12bZBs4UqsxRUqqbr1mOJYKfIPR7LoDQ9mXPOjoJoqy81S2I8PaoYXhp6HxIwZIk7-Mi3Tsic-L2IOPH3Dwrhl-Ne3Z2eNDGjOLIaI6quMrx6HoRhdadUAH4wRhdjcTh0P16giTdZR9z9mxWb0yLUToVqwSd/LindsaySalazar.com-71.jpg?format=1500w",
      "ref_url": "https://www.alicelaneinteriordesign.com/the-brinton",
      "rooms": [5],
      "styles": [3, 6],
      "direction": "portrait",
      "designed_by": "Alice Lane Interior Design"
    },
    {
      "uuid": "599a4a14-20e1-4d3c-be42-32d52a2f793a",
      "ref_img": "https://images.squarespace-cdn.com/content/v1/58dbd0dc46c3c49f850830df/1563827110569-R9NWLIAJGD4C1F0BK2KB/ke17ZwdGBToddI8pDm48kLkXF2pIyv_F2eUT9F60jBl7gQa3H78H3Y0txjaiv_0fDoOvxcdMmMKkDsyUqMSsMWxHk725yiiHCCLfrh8O1z4YTzHvnKhyp6Da-NYroOW3ZGjoBKy3azqku80C789l0iyqMbMesKd95J-X4EagrgU9L3Sa3U8cogeb0tjXbfawd0urKshkc5MgdBeJmALQKw/AndreaRodman_Highbury_0124-min.JPG?format=2500w",
      "ref_url": "https://www.andrearodman.com/work-3/highbury-st",
      "rooms": [2],
      "styles": [6, 10],
      "direction": "landscape",
      "designed_by": "Andrea Rodman Interiors"
    },
    {
      "uuid": "b469ccf2-5f69-4c44-8833-8a037ccf495e",
      "ref_img": "https://magnolia.com/wp-content/uploads/2018/03/image26-1.jpg?x42711",
      "ref_url": "https://magnolia.com/wp-content/uploads/2018/03/image26-1.jpg?x42711",
      "rooms": [3],
      "styles": [1, 7, 10],
      "direction": null,
      "designed_by": "Joanna Gaines"
    },
    {
      "uuid": "6acf1b05-b01c-482e-9a8a-56f34af70b71",
      "ref_img": "https://images.squarespace-cdn.com/content/v1/53744d2fe4b0a52017d9e3d4/1566251429347-RD1VN68ZBT2WLOWGTLY3/ke17ZwdGBToddI8pDm48kI-NA-hRR9A1Yx4L4zDSBgl7gQa3H78H3Y0txjaiv_0fDoOvxcdMmMKkDsyUqMSsMWxHk725yiiHCCLfrh8O1z5QHyNOqBUUEtDDsRWrJLTmG94TGNuzCcCPVStE9JyN8KmvyUpKrFdNdgBu_gonFO-KY4FMkE2_BW0B6s3J2pdc/studiomcgee_northridge_068.jpg?format=1500w",
      "ref_url": "https://www.studio-mcgee.com/portfolio/2019/8/19/northridge-remodel-1",
      "rooms": [4],
      "styles": [3, 5, 10],
      "direction": "portrait",
      "designed_by": "Studio McGee"
    },
    {
      "uuid": "31038fec-0c49-45ed-8677-fc2f4a54140f",
      "ref_img": "https://www.blesserhouse.com/wp-content/uploads/2018/02/bright-playroom-makeover-1-of-1-1.jpg",
      "ref_url": "https://www.blesserhouse.com/playroom-makeover-reveal/",
      "rooms": [7],
      "styles": [4, 10],
      "direction": null,
      "designed_by": "Bless'er House"
    },
    {
      "uuid": "b5bdaf6e-92ed-4342-bec0-d73c4f33bda9",
      "ref_img": "https://magnolia.com/wp-content/uploads/2017/12/image14.jpg?x42711",
      "ref_url": "https://magnolia.com/our-show/episode-03-jackson/",
      "rooms": [7],
      "styles": [1, 5],
      "direction": null,
      "designed_by": "Joanna Gaines"
    },
    {
      "uuid": "3a44d3e9-37de-4c55-bd83-6658d3818df7",
      "ref_img": "https://i.pinimg.com/474x/36/cf/ff/36cfffdfd8c031a8e8189c8ad78caa4c.jpg",
      "ref_url": "https://lifeonvirginiastreet.com/simple-and-affordable-artwork-ideas/?utm_term=cozy%20living%20room%205356649549",
      "rooms": [1],
      "styles": [5],
      "direction": "portrait",
      "designed_by": "Life On Virginia Street"
    },
    {
      "uuid": "5852e1d9-3104-4db3-8f1a-5728182579a0",
      "ref_img": "https://images.squarespace-cdn.com/content/v1/5aa57fac9772aef852886c41/1538353451141-6K768DJ8RI7IJRE47ACI/ke17ZwdGBToddI8pDm48kEjdu4_7yO2tRE5btUIWsvx7gQa3H78H3Y0txjaiv_0fDoOvxcdMmMKkDsyUqMSsMWxHk725yiiHCCLfrh8O1z5QHyNOqBUUEtDDsRWrJLTmujyyI7Frso6MRdplGTbhDgK5PrhC4LwjBi5togLqD-V51ZmpMALuXUkC2DaUD9LF/W1.jpg?format=1500w",
      "ref_url": "https://www.hudsoninteriordesigns.com/winchester",
      "rooms": [8],
      "styles": [1, 10],
      "direction": "portrait",
      "designed_by": "Hudson Interior Design"
    },
    {
      "uuid": "76ea76f2-a553-42c9-b2a5-bc38711b53ac",
      "ref_img": "http://amberinteriordesign.com/wp-content/uploads/2018/11/Alexander-077-e1521491973633.jpg",
      "ref_url": "http://amberinteriordesign.com/project/client-holla-at-la-jolla/",
      "rooms": [1],
      "styles": [4, 5],
      "direction": "portrait",
      "designed_by": "Amber Interiors"
    },
    {
      "uuid": "b99625f3-b22d-440d-9fe9-0acf8170f35c",
      "ref_img": "http://amberinteriordesign.com/wp-content/uploads/2019/11/Amber-Interiors-Client-Bu-Round-Two-Tessa-Neustadt-35.jpg",
      "ref_url": "http://amberinteriordesign.com/project/client-bu-round-two/",
      "rooms": [1],
      "styles": [5, 8, 11],
      "direction": "portrait",
      "designed_by": "Amber Interiors"
    },
    {
      "uuid": "70efec38-f23c-417a-b50d-4c860d73f384",
      "ref_img": "http://amberinteriordesign.com/wp-content/uploads/2019/11/Amber-Interiors-Client-Bu-Round-Two-Tessa-Neustadt-81.jpeg",
      "ref_url": "http://amberinteriordesign.com/project/client-bu-round-two/",
      "rooms": [3],
      "styles": [3, 5],
      "direction": "portrait",
      "designed_by": "Amber Interiors"
    },
    {
      "uuid": "02b642cb-cdf4-4da7-86af-df468ac47c3e",
      "ref_img": "https://briahammelinteriors.com/wp-content/uploads/2019/05/BH_Afton_003-600x900.jpg",
      "ref_url": "https://briahammelinteriors.com/portfolio/the-afton-house/",
      "rooms": [6],
      "styles": [3, 12],
      "direction": "portrait",
      "designed_by": "Bria Hammel Interiors"
    },
    {
      "uuid": "2867131a-6a54-4b7a-bd12-23dca93d5bfd",
      "ref_img": "https://images.squarespace-cdn.com/content/v1/5b215a75f407b4c717c8e85b/1534884542546-BYBDS6E2U1NPYTGSGN08/ke17ZwdGBToddI8pDm48kMCTuTFzHtj_K_YBdKq7Ywp7gQa3H78H3Y0txjaiv_0fDoOvxcdMmMKkDsyUqMSsMWxHk725yiiHCCLfrh8O1z5QHyNOqBUUEtDDsRWrJLTmT2Rk9u7KA3hFIM978bk87zMIFRnZY45e_iVoZQtyz7w80cw2dgVMjIEhdr-8SD9y/wagner_31.jpg?format=2500w",
      "ref_url": "https://www.brookewagnerdesign.com/barmouth",
      "rooms": [5],
      "styles": [5, 8],
      "direction": "portrait",
      "designed_by": "Brooke Wagner Design"
    },
    {
      "uuid": "243cd147-03e7-493e-b426-1db6a05864f9",
      "ref_img": "https://www.brightontheday.com/wp-content/uploads/2019/10/house-filler-photos-3-e1572380349600.jpg",
      "ref_url": "https://www.brightontheday.com/all-about-my-dallas-home/",
      "rooms": [1],
      "styles": [2, 11],
      "direction": null,
      "designed_by": "Brighton Keller"
    },
    {
      "uuid": "31f7bf03-d73a-4fd6-b6f5-bce1cea090ee",
      "ref_img": "https://cdn.shopify.com/s/files/1/2563/4738/files/0005_3f146b65-171e-459b-bfa7-40a874572dba_1024x1024.jpg?v=1562108656",
      "ref_url": "https://studio-lifestyle.com/blogs/projects/brentwood",
      "rooms": [3],
      "styles": [3, 4],
      "direction": "landscape",
      "designed_by": "Studio Lifestyle"
    },
    {
      "uuid": "8b304072-1efb-4cab-bac8-f7794c30f7b4",
      "ref_img": "http://amberinteriordesign.com/wp-content/uploads/2019/11/Amber-Interiors-Client-Bu-Round-Two-Tessa-Neustadt-24.jpg",
      "ref_url": "http://amberinteriordesign.com/project/client-bu-round-two/",
      "rooms": [2],
      "styles": [3, 5, 7],
      "direction": "portrait",
      "designed_by": "Amber Interiors"
    },
    {
      "uuid": "3efb4b97-e19c-4289-bb72-09d0be36f2e5",
      "ref_img": "https://images.squarespace-cdn.com/content/v1/55e4a140e4b02d84f4b460a1/1544112347373-FC5RCRUHLNXS96O6U4B0/ke17ZwdGBToddI8pDm48kLZF5-FdI87lzOz1bHK0H8p7gQa3H78H3Y0txjaiv_0fDoOvxcdMmMKkDsyUqMSsMWxHk725yiiHCCLfrh8O1z5QPOohDIaIeljMHgDF5CVlOqpeNLcJ80NK65_fV7S1UYCa577KHI7uqp2UWK89VCel439TKpw7JgsdlbedxgF2-1NK7a2rx1wkIPBPRufh_A/photo-2.jpg?format=1500w",
      "ref_url": "http://basicprojects.us/r7-project-11",
      "rooms": [1],
      "styles": [5, 11],
      "direction": "portrait",
      "designed_by": "Basic Projects"
    },
    {
      "uuid": "3bcfaf12-d5ab-4a35-a5a5-116ada1e6d32",
      "ref_img": "http://media.virbcdn.com/cdn_images/resize_1024x1024/be/4fe33430f92eebc0-10thStnursery1_CND.jpg",
      "ref_url": "http://courtneynye.com/tenth-street#/id/i12713363",
      "rooms": [7],
      "styles": [3],
      "direction": "landscape",
      "designed_by": "Courtney Nye Design"
    },
    {
      "uuid": "5a02c726-9ccc-40e5-90cc-1d7ac6d1aae2",
      "ref_img": "https://images.squarespace-cdn.com/content/v1/5b58a62c4611a0092131b59c/1551383934873-937PT917FF3XJKISX63S/ke17ZwdGBToddI8pDm48kFyD7pzB8zoMIVY5aiUuFlp7gQa3H78H3Y0txjaiv_0fDoOvxcdMmMKkDsyUqMSsMWxHk725yiiHCCLfrh8O1z4YTzHvnKhyp6Da-NYroOW3ZGjoBKy3azqku80C789l0jG2lbcDYBOeMi4OFSYem8DMb5PTLoEDdB05UqhYu-xbnSznFxIRsaAU-3g5IaylIg/GOLDMAN_4727.jpg?format=2500w",
      "ref_url": "https://interiors.kerrirosenthal.com/865004006353",
      "rooms": [7],
      "styles": [10],
      "direction": "landscape",
      "designed_by": "Kerri Rosenthal"
    }
  ]
}
