{
  "count": 623,
  "next": "https://www.918main.com/inspirations/?page=2",
  "previous": null,
  "results": [
    {
      "uuid": "9aa73143-cd26-4f77-a7e6-c31af499a7ce",
      "ref_img": "https://i.pinimg.com/564x/cd/56/ab/cd56ab19751ed0053d2d195cc6cb112d.jpg",
      "ref_url": "https://proverbs31girl.com/our-patio-and-my-new-brightech-lights/",
      "rooms": [9],
      "styles": [3, 4],
      "direction": "portrait",
      "designed_by": "Proverbs Thirty One Girl"
    },
    {
      "uuid": "d000ab86-955d-432a-a2da-718a9a80b99a",
      "ref_img": "https://i.pinimg.com/564x/14/1a/31/141a31ef54f440b37b05d51254fec9d2.jpg",
      "ref_url": "https://www.pinterest.com/pin/257971884893728600/",
      "rooms": [1, 2, 3, 4, 5, 6, 7, 8],
      "styles": [10, 5],
      "direction": "landscape",
      "designed_by": "Pinterest"
    },
    {
      "uuid": "68f90c79-a1dc-4c18-b254-d8909aa43b8e",
      "ref_img": "https://images.squarespace-cdn.com/content/v1/58af24b4f5e231d703e2d167/1571119926916-A0E38YNNO35QI1MN6M8M/ke17ZwdGBToddI8pDm48kNu93_l1Rc0JoXikXAEKHf17gQa3H78H3Y0txjaiv_0fDoOvxcdMmMKkDsyUqMSsMWxHk725yiiHCCLfrh8O1z5QHyNOqBUUEtDDsRWrJLTmDJyaVitQ06bkWUY0OMxkmN-bdz7wg8la12Me-ub45vBE5029s6uMXtkNCzVgxK8m/dallas_master_bathroom_vanity.jpg?format=1500w",
      "ref_url": "https://www.larkinteriorstx.com/portfolio-page",
      "rooms": [4],
      "styles": [1, 2, 5, 8],
      "direction": "portrait",
      "designed_by": "Lark Interiors"
    },
    {
      "uuid": "f08a05a1-0672-4c71-a194-8cbcc753a9d6",
      "ref_img": "https://images.squarespace-cdn.com/content/v1/598886b0f14aa110add2de9b/1571172239942-JTCM16LJTTK06MMEU5DF/ke17ZwdGBToddI8pDm48kHTHJlACqy9PR67J39ATHOp7gQa3H78H3Y0txjaiv_0fDoOvxcdMmMKkDsyUqMSsMWxHk725yiiHCCLfrh8O1z5QPOohDIaIeljMHgDF5CVlOqpeNLcJ80NK65_fV7S1UfZ1qQlCBU8D8HwMSx19XWWhZWoAraqJt_ybhixA0kzVDVfRxgAIsQ7eQiOnQS3C_Q/KMI_Barrington_Hills_053.jpg?format=2500w",
      "ref_url": "https://www.katemarkerinteriors.com",
      "rooms": [1],
      "styles": [3, 5, 10, 11],
      "direction": "landscape",
      "designed_by": "Kate Marker Interiors"
    },
    {
      "uuid": "222c289f-bd1a-4598-a3d2-bd70a0224374",
      "ref_img": "https://briahammelinteriors.com/wp-content/uploads/2019/09/819_97th_St42-600x900.jpg",
      "ref_url": "https://briahammelinteriors.com/portfolio/sd-lake-home/",
      "rooms": [7],
      "styles": [1, 5, 6],
      "direction": "portrait",
      "designed_by": "Bria Hammel Interiors"
    },
    {
      "uuid": "ab4c8e0b-3f66-48c8-b301-0b9a39d1c5e1",
      "ref_img": "http://amberinteriordesign.com/wp-content/uploads/2019/11/Amber-Interiors-Client-Bu-Round-Two-Tessa-Neustadt-24.jpg",
      "ref_url": "http://amberinteriordesign.com/project/client-bu-round-two/",
      "rooms": [2],
      "styles": [3, 5, 7],
      "direction": "portrait",
      "designed_by": "Amber Interiors"
    },
    {
      "uuid": "c80fcec1-085e-4c15-b4fa-3990bd205f03",
      "ref_img": "https://images.squarespace-cdn.com/content/v1/5b8d9fce1aef1d492e39c994/1572537508250-H7935UCPEDXO8TS7GLVJ/ke17ZwdGBToddI8pDm48kNjGJa9KGLWRPNxUL7mht3t7gQa3H78H3Y0txjaiv_0fDoOvxcdMmMKkDsyUqMSsMWxHk725yiiHCCLfrh8O1z4YTzHvnKhyp6Da-NYroOW3ZGjoBKy3azqku80C789l0prfa1Z6IeUrCPboCAmmHZn7uzK3Z2gLDA-agoGhCBmNxKUeqOIAUxk1NM8ie8S1IQ/4107EE27-E401-40D9-873E-B34BC07939E0.jpg?format=2500w",
      "ref_url": "https://www.leclairdecor.com/hudson-landing-page",
      "rooms": [6],
      "styles": [10, 3, 12],
      "direction": "portrait",
      "designed_by": "Leclair Decor"
    },
    {
      "uuid": "05143cea-4918-42ff-b32b-f071da7b1612",
      "ref_img": "https://images.squarespace-cdn.com/content/v1/523b35efe4b095355a6b4f3b/1533689114108-SMETXSJ47X6OMROXHSW9/ke17ZwdGBToddI8pDm48kLkXF2pIyv_F2eUT9F60jBl7gQa3H78H3Y0txjaiv_0fDoOvxcdMmMKkDsyUqMSsMWxHk725yiiHCCLfrh8O1z4YTzHvnKhyp6Da-NYroOW3ZGjoBKy3azqku80C789l0iyqMbMesKd95J-X4EagrgU9L3Sa3U8cogeb0tjXbfawd0urKshkc5MgdBeJmALQKw/ShannonEddingsPeidmont-9.jpg?format=2500w",
      "ref_url": "http://www.shannoneddings.com/portfolio2#/piedmont",
      "rooms": [1],
      "styles": [10, 11],
      "direction": "Landscape",
      "designed_by": "Shannon Eddings"
    },
    {
      "uuid": "269d4681-e85a-4029-814e-c1687b6197c3",
      "ref_img": "https://www.imgnyc.com/wp-content/uploads/2019/10/IMG-Portfolio-View-all-Img-27-A.jpg",
      "ref_url": "https://www.imgnyc.com/portfolio/view-all/",
      "rooms": [5],
      "styles": [6],
      "direction": "portrait",
      "designed_by": "IMG"
    },
    {
      "uuid": "b58fab6f-2021-4729-ba1e-2f04bba54f55",
      "ref_img": "https://images.squarespace-cdn.com/content/v1/5b215a75f407b4c717c8e85b/1534881184417-1MERIKST5L8TQ1GKE8TY/ke17ZwdGBToddI8pDm48kHTHJlACqy9PR67J39ATHOp7gQa3H78H3Y0txjaiv_0fDoOvxcdMmMKkDsyUqMSsMWxHk725yiiHCCLfrh8O1z5QPOohDIaIeljMHgDF5CVlOqpeNLcJ80NK65_fV7S1UfZ1qQlCBU8D8HwMSx19XWWhZWoAraqJt_ybhixA0kzVDVfRxgAIsQ7eQiOnQS3C_Q/lido_25.jpg?format=2500w",
      "ref_url": "https://www.brookewagnerdesign.com/lido",
      "rooms": [7],
      "styles": [10, 5],
      "direction": "landscape",
      "designed_by": "Brooke Wagner Design"
    },
    {
      "uuid": "9e12c774-7fd7-40f6-ac66-4ed216839a82",
      "ref_img": "https://thehavenlist.com/wp-content/uploads/2020/01/christopherlee-veindesign-walnut-hometour-7.jpg",
      "ref_url": "https://www.veindesign.com/index#/interiors-4",
      "rooms": [3],
      "styles": [3],
      "direction": null,
      "designed_by": "Vein Design"
    },
    {
      "uuid": "0cc2d3ed-6c2e-486a-b0e6-57c91be7a68f",
      "ref_img": "https://i.pinimg.com/564x/7e/31/21/7e312137b87036362fe055dd89e0a457.jpg",
      "ref_url": "https://www.pinterest.com/pin/210965563782007104/",
      "rooms": [2],
      "styles": [3, 5],
      "direction": "portrait",
      "designed_by": "Studio McGee"
    },
    {
      "uuid": "69796adb-d569-4873-a978-d47913500eb4",
      "ref_img": "https://media.architecturaldigest.com/photos/5887b975471633506a0108ff/master/w_1600%2Cc_limit/McGrath-Tribeca-NYC_03.jpg",
      "ref_url": "https://www.architecturaldigest.com/gallery/mcgrath-downtown-manhattan-apArtment-thats-filled-with-uptown-pattern-and-charm?crlt.pid=camp.WJBUBOZ5UIju#1",
      "rooms": [5],
      "styles": [2, 10],
      "direction": "portrait",
      "designed_by": "McGrath II"
    },
    {
      "uuid": "249641b3-0404-43ef-ad56-a16bee643c66",
      "ref_img": "https://images.squarespace-cdn.com/content/v1/53744d2fe4b0a52017d9e3d4/1490044727018-M70VRNRHPIFW93CHFI47/ke17ZwdGBToddI8pDm48kFWxnDtCdRm2WA9rXcwtIYR7gQa3H78H3Y0txjaiv_0fDoOvxcdMmMKkDsyUqMSsMWxHk725yiiHCCLfrh8O1z5QPOohDIaIeljMHgDF5CVlOqpeNLcJ80NK65_fV7S1UcTSrQkGwCGRqSxozz07hWZrYGYYH8sg4qn8Lpf9k1pYMHPsat2_S1jaQY3SwdyaXg/22static1.squarespace.com.jpeg?format=2500w",
      "ref_url": "https://www.studio-mcgee.com/portfolio/2017/3/20/vineyard-street-project",
      "rooms": [1],
      "styles": [10, 3, 5],
      "direction": "landscape",
      "designed_by": "Studio McGee"
    },
    {
      "uuid": "d96f8d92-1ef4-4277-b7a0-a3134deafbfb",
      "ref_img": "https://i.pinimg.com/564x/fc/73/08/fc7308aec8d06c99ec2338f38e998ca5.jpg",
      "ref_url": "https://www.instagram.com/p/B2Mcf6sHZZ5/?igshid=18cog05upur8h",
      "rooms": [5],
      "styles": [8, 1, 5],
      "direction": "portrait",
      "designed_by": "Pure Salt Interiors"
    },
    {
      "uuid": "6ad4c6d6-4acc-46da-ac7f-af76ab057d83",
      "ref_img": "https://cdn.safaviehhome.com/uploads/2019/08/sfv2104c-room.jpg",
      "ref_url": "https://www.safaviehhome.com/shop/lorna-6-drawer-contemporary-dresser/?variation=SFV2104C",
      "rooms": [5],
      "styles": [11, 10, 3],
      "direction": "Landscape",
      "designed_by": "Safavieh Couture"
    },
    {
      "uuid": "bb99d0f5-1b40-4312-91a5-b1943393bd91",
      "ref_img": "https://i.pinimg.com/564x/ec/c0/43/ecc043983ca316550928ea6bba080640.jpg",
      "ref_url": "https://www.mcgeeandco.com/products/millard-stool?variant=13991444971595",
      "rooms": [1],
      "styles": [5],
      "direction": "portrait",
      "designed_by": "McGee & Co"
    },
    {
      "uuid": "3ee97107-5a83-4e17-a760-49b6ede49b20",
      "ref_img": "https://i.pinimg.com/564x/5f/48/85/5f48859ce4e3dc24208a71db483999f4.jpg",
      "ref_url": "https://www.pinterest.com/pin/257971884893726561/",
      "rooms": [1, 2, 3, 4, 5, 6, 7, 8],
      "styles": [1, 2, 3, 4, 5, 12],
      "direction": "portrait",
      "designed_by": "Room For Tuesday"
    },
    {
      "uuid": "c753ade8-5297-4079-82ed-5412fc4ce770",
      "ref_img": "https://www.brightontheday.com/wp-content/uploads/2019/10/Brighton-Keller-Bedroom-6-e1572380023734.jpg",
      "ref_url": "https://www.brightontheday.com/all-about-my-dallas-home/",
      "rooms": [5],
      "styles": [2, 5, 6, 10],
      "direction": null,
      "designed_by": "Brighton Keller"
    },
    {
      "uuid": "5fd5083b-54f2-481f-9e0c-fa4dccd2af64",
      "ref_img": "https://cdn.styleblueprint.com/wp-content/uploads/2018/09/SB-AmyBerry-23-e1537193968128.jpg",
      "ref_url": "https://www.amyberrydesign.com/",
      "rooms": [1],
      "styles": [2],
      "direction": "portrait",
      "designed_by": "Amy Berry Design"
    },
    {
      "uuid": "89a774c2-c1ba-4a63-b898-ccf8972ecf3e",
      "ref_img": "https://www.jrobininteriors.com/wp-content/uploads/2016/10/10-1.jpg",
      "ref_url": "https://www.jrobininteriors.com/portfolio/south-bay/",
      "rooms": [2],
      "styles": [1, 7],
      "direction": "landscape",
      "designed_by": "J Robin Interiors"
    },
    {
      "uuid": "24d4681a-191a-415a-bce5-f7a09701bd95",
      "ref_img": "https://sanctuaryhomedecor.com/wp-content/uploads/2019/07/Small_Bunk_Room_With_Big_Style.jpg",
      "ref_url": "https://sanctuaryhomedecor.com/tour-our-new-guest-cottage-bunk-room/",
      "rooms": [7],
      "styles": [1, 7],
      "direction": "portrait",
      "designed_by": "Sanctuary Home Decor"
    },
    {
      "uuid": "a06a0cef-5ede-4971-b9dc-4288bdf42d37",
      "ref_img": "http://amberinteriordesign.com/wp-content/uploads/2019/11/Amber-Interiors-Client-Bu-Round-Two-Tessa-Neustadt-35.jpg",
      "ref_url": "http://amberinteriordesign.com/project/client-bu-round-two/",
      "rooms": [1],
      "styles": [8, 11, 5],
      "direction": "portrait",
      "designed_by": "Amber Interiors"
    },
    {
      "uuid": "f43c106c-1ca2-4e0d-ba43-3c116ef7a7fd",
      "ref_img": "https://magnolia.com/wp-content/uploads/2019/04/image30.jpg",
      "ref_url": "https://magnolia.com/incorporating-wallpaper-into-your-home/",
      "rooms": [8],
      "styles": [1, 5],
      "direction": null,
      "designed_by": "Joanna Gaines"
    },
    {
      "uuid": "d79a3bb5-cb0f-4ec6-b3cd-dd9124d83df9",
      "ref_img": "https://cdn.shopify.com/s/files/1/2563/4738/files/riveria-11_1024x1024.png?v=1554783930",
      "ref_url": "https://studio-lifestyle.com/blogs/projects/santa-monica-canyon",
      "rooms": [7],
      "styles": [1, 10, 4],
      "direction": "landscape",
      "designed_by": "Studio Lifestyle"
    },
    {
      "uuid": "1c00aa1a-60dd-4c5b-b3d8-e7e6ea203779",
      "ref_img": "https://katelesterinteriors.com/wp-content/uploads/2019/11/IMG-26.jpg",
      "ref_url": "https://katelesterinteriors.com/anderson/",
      "rooms": [1],
      "styles": [5],
      "direction": "landscape",
      "designed_by": "Kate Lester Interiors"
    },
    {
      "uuid": "131ea4f4-e2a1-4127-b712-563594284392",
      "ref_img": "https://www.we-heArt.com/upload-images/purohotelslodz18.jpg",
      "ref_url": "https://www.we-heArt.com/2019/05/17/puro-lodz-design-hotel-puro-hotels/?utm_medium=email&utm_campaign=List%20by%20We%20HeArt%20Issue%20321&utm_content=List%20by%20We%20HeArt%20Issue%20321+CID_9d01ddf5f66cc9cf7e12577300e1969c&utm_source=List&utm_term=PURO%20Hotels%20add%20another%20culture-forward%20design%20hotel%20to%20their%20portfolio%20with%20a%20blockbuster%20opening%20in%20the%20home%20of%20Polish%20cinema",
      "rooms": [4],
      "styles": [3],
      "direction": "portrait",
      "designed_by": "SuperFutures"
    },
    {
      "uuid": "c1059400-bb74-4814-a27a-64adca87749e",
      "ref_img": "http://amberinteriordesign.com/wp-content/uploads/2019/11/Amber-Interiors-Client-Bu-Round-Two-Tessa-Neustadt-8-1-e1573443291633.jpg",
      "ref_url": "http://amberinteriordesign.com/project/client-bu-round-two/",
      "rooms": [3],
      "styles": [5, 7],
      "direction": "portrait",
      "designed_by": "Amber Interiors"
    },
    {
      "uuid": "2f7024b2-7bae-4322-ba6b-9114769b2f65",
      "ref_img": "https://magnolia.com/wp-content/uploads/2018/01/image29-3.jpg?x42711",
      "ref_url": "https://magnolia.com/our-show/episode-09-holmes-home/",
      "rooms": [5],
      "styles": [12, 7],
      "direction": null,
      "designed_by": "Joanna Gaines"
    },
    {
      "uuid": "f45db43b-f508-4477-ab2c-84a8fba5a61a",
      "ref_img": "https://i.pinimg.com/564x/ef/1c/cf/ef1ccfa2cb735a930a09e7d78a5accfa.jpg",
      "ref_url": "https://www.pinterest.com/pin/55872851614053595/",
      "rooms": [8],
      "styles": [10, 5],
      "direction": "portrait",
      "designed_by": "Studio McGee"
    },
    {
      "uuid": "8e3754b7-7292-4680-8160-1ef8ed66b493",
      "ref_img": "https://blog.houseofjadeinteriors.com/wp-content/uploads/2016/02/HOJI_Mapleton_BeckyKimballPhoto_41.jpg",
      "ref_url": "https://blog.houseofjadeinteriors.com/2016/02/mapleton-new-build-entry-office-2.html",
      "rooms": [6],
      "styles": [1, 3, 5],
      "direction": "portrait",
      "designed_by": "House of Jade Interiors"
    },
    {
      "uuid": "7ee90003-3ff5-40d5-bbf1-1e1ea3b3bb5c",
      "ref_img": "https://katelesterinteriors.com/wp-content/uploads/2019/11/HerAve29.jpg",
      "ref_url": "https://katelesterinteriors.com/hermosa-avenue/",
      "rooms": [2],
      "styles": [1, 2],
      "direction": "portrait",
      "designed_by": "Kate Lester Interiors"
    },
    {
      "uuid": "405038d3-5dd7-4faa-b86d-42a3b2985fa9",
      "ref_img": "https://www.jrobininteriors.com/wp-content/uploads/2018/05/1-3.jpg",
      "ref_url": "https://www.jrobininteriors.com/portfolio/sonoma-ii/",
      "rooms": [2],
      "styles": [3, 7],
      "direction": "portrait",
      "designed_by": "J Robin Interiors"
    },
    {
      "uuid": "8f1dd299-2aea-4e23-a600-9ffd37ee020e",
      "ref_img": "https://images.squarespace-cdn.com/content/v1/55e4a140e4b02d84f4b460a1/1544112347373-FC5RCRUHLNXS96O6U4B0/ke17ZwdGBToddI8pDm48kLZF5-FdI87lzOz1bHK0H8p7gQa3H78H3Y0txjaiv_0fDoOvxcdMmMKkDsyUqMSsMWxHk725yiiHCCLfrh8O1z5QPOohDIaIeljMHgDF5CVlOqpeNLcJ80NK65_fV7S1UYCa577KHI7uqp2UWK89VCel439TKpw7JgsdlbedxgF2-1NK7a2rx1wkIPBPRufh_A/photo-2.jpg?format=1500w",
      "ref_url": "http://basicprojects.us/r7-project-11",
      "rooms": [1],
      "styles": [11, 5],
      "direction": "portrait",
      "designed_by": "Basic Projects"
    },
    {
      "uuid": "b77f7933-0e0a-4f24-80f2-e482ae21fd24",
      "ref_img": "https://images.squarespace-cdn.com/content/v1/53744d2fe4b0a52017d9e3d4/1543532990733-661ZL0YM1DZLRS6AFKRC/ke17ZwdGBToddI8pDm48kJvIBJKj9hiMY8qJAZbpGu57gQa3H78H3Y0txjaiv_0fDoOvxcdMmMKkDsyUqMSsMWxHk725yiiHCCLfrh8O1z5QHyNOqBUUEtDDsRWrJLTmFrKkuyfqIWRdt3lCufLMAbNHogpN6vLf1hN3CU0KTo8oAqTaauXcyFZK68FNnega/file.jpg?format=1500w",
      "ref_url": "https://www.katiehodgesdesign.com/portfolio",
      "rooms": [1],
      "styles": [5],
      "direction": "portrait",
      "designed_by": "Katie Hodges Design"
    },
    {
      "uuid": "06d8e93f-e703-434e-94b9-f2c8451d2082",
      "ref_img": "https://cdn.shopify.com/s/files/1/2563/4738/files/0001_222e03e6-cc3d-404f-ba9f-7edaaa789be0_1024x1024.jpg?v=1562108561",
      "ref_url": "https://studio-lifestyle.com/blogs/projects/brentwood",
      "rooms": [3],
      "styles": [1, 3, 5],
      "direction": "landscape",
      "designed_by": "Studio Lifestyle"
    },
    {
      "uuid": "ad2bf0c2-2bc6-402a-8815-29ddc2775b51",
      "ref_img": "https://i.pinimg.com/564x/d2/c2/25/d2c2251650985b82594e095f211193b8.jpg",
      "ref_url": "https://www.ballarddesigns.com/sunday-porch-swing/outdoor-living/category/lounge/hammocks-swings/265523?utm_content=buffer687fa&utm_medium=social&utm_source=pinterest.com&utm_campaign=buffer#BVRRWidgetID",
      "rooms": [9],
      "styles": [8, 2, 5],
      "direction": "landscape",
      "designed_by": "Ballard"
    },
    {
      "uuid": "c3635537-7ddc-4cae-ba71-a7779db289b0",
      "ref_img": "https://images.squarespace-cdn.com/content/v1/53744d2fe4b0a52017d9e3d4/1566251430975-9MYFHN5EP0ZQXD7ZWTN8/ke17ZwdGBToddI8pDm48kHqeNHunHbzCQAHAT7MPDwR7gQa3H78H3Y0txjaiv_0fDoOvxcdMmMKkDsyUqMSsMWxHk725yiiHCCLfrh8O1z5QPOohDIaIeljMHgDF5CVlOqpeNLcJ80NK65_fV7S1URT3f-1LIhDjjcNv-gDPOr0ji7t-EZxsDvhKgF-xbsh4sh_vZu_IHrh0xbom9DKbTA/studiomcgee_northridge_076.jpg?format=2500w",
      "ref_url": "https://www.studio-mcgee.com/portfolio/2019/8/19/northridge-remodel-1",
      "rooms": [3],
      "styles": [1, 5, 10, 12],
      "direction": "landscape",
      "designed_by": "Studio McGee"
    },
    {
      "uuid": "452e7c79-661f-40bd-bb86-fb0e271023f5",
      "ref_img": "https://www.jrobininteriors.com/wp-content/uploads/2017/10/1.jpg",
      "ref_url": "https://www.jrobininteriors.com/portfolio/homewood/",
      "rooms": [8],
      "styles": [1, 7],
      "direction": "portrait",
      "designed_by": "J Robin Interiors"
    },
    {
      "uuid": "36c70cdc-baea-4983-8d8f-247dd748ac71",
      "ref_img": "https://i.pinimg.com/564x/9d/b8/06/9db80682e6fee2aec7a8496d4219dad6.jpg",
      "ref_url": "https://www.pinterest.com/pin/218635756897189671/",
      "rooms": [1, 2, 3, 4, 5, 6, 7, 8],
      "styles": [10, 5, 6],
      "direction": "portrait",
      "designed_by": "Pinterest"
    },
    {
      "uuid": "01f4c49f-55c5-4eff-8d35-c0417a8624d6",
      "ref_img": "https://i.pinimg.com/564x/6c/10/59/6c10598b9797e6a119d17a0953001eb6.jpg",
      "ref_url": "https://www.pinterest.com/pin/797981627712386616/",
      "rooms": [1, 2, 3, 4, 5, 6, 7, 8],
      "styles": [1, 2, 3, 5, 6, 7, 8, 9, 11, 12],
      "direction": "portrait",
      "designed_by": "Clare"
    },
    {
      "uuid": "d5760b7f-0742-4998-b9dc-f0b33c016db4",
      "ref_img": "https://www.brightontheday.com/wp-content/uploads/2019/10/house-filler-photos-3-e1572380349600.jpg",
      "ref_url": "https://www.brightontheday.com/all-about-my-dallas-home/",
      "rooms": [1],
      "styles": [2, 11],
      "direction": null,
      "designed_by": "Brighton Keller"
    },
    {
      "uuid": "b2282996-5654-4f7f-a056-b61c8179794c",
      "ref_img": "https://www.jrobininteriors.com/wp-content/uploads/2017/10/16.jpg",
      "ref_url": "https://www.jrobininteriors.com/portfolio/homewood/",
      "rooms": [4],
      "styles": [1, 7],
      "direction": "portrait",
      "designed_by": "J Robin Interiors"
    },
    {
      "uuid": "97b8a37b-7551-466f-bea4-25ec75792e21",
      "ref_img": "https://images.squarespace-cdn.com/content/v1/5c7d64b29b7d153b9ba999fc/1552275994747-GC34L9BD4KGJPGRJUA69/ke17ZwdGBToddI8pDm48kLkXF2pIyv_F2eUT9F60jBl7gQa3H78H3Y0txjaiv_0fDoOvxcdMmMKkDsyUqMSsMWxHk725yiiHCCLfrh8O1z4YTzHvnKhyp6Da-NYroOW3ZGjoBKy3azqku80C789l0iyqMbMesKd95J-X4EagrgU9L3Sa3U8cogeb0tjXbfawd0urKshkc5MgdBeJmALQKw/_68C8709.jpg?format=2500w",
      "ref_url": "https://www.intimatelivinginteriors.com/enclave",
      "rooms": [5],
      "styles": [4],
      "direction": "landscape",
      "designed_by": "Intimate Living Interiors"
    },
    {
      "uuid": "3a9f8775-a167-4f5e-a305-61b421977ce5",
      "ref_img": "https://images.squarespace-cdn.com/content/v1/53744d2fe4b0a52017d9e3d4/1498144503609-EMWMLM80X8A4SOO16JD4/ke17ZwdGBToddI8pDm48kDEDYh4Y0JGhR6hzuwcJ44gUqsxRUqqbr1mOJYKfIPR7LoDQ9mXPOjoJoqy81S2I8N_N4V1vUb5AoIIIbLZhVYxCRW4BPu10St3TBAUQYVKcz6bs2FkMoqlrQIzq4g5ogDqXr_T7rMikH_TfPkEE4wwzGwe9KEhUq6A0DxOZf-75/20static1.squarespace.com.jpeg?format=2500w",
      "ref_url": "https://www.studio-mcgee.com/portfolio/2017/6/22/park-city-canyons-remodel",
      "rooms": [5],
      "styles": [11, 7],
      "direction": "landscape",
      "designed_by": "Studio McGee"
    },
    {
      "uuid": "aaa1846a-3b6f-464d-bfe7-75a861a265a6",
      "ref_img": "https://i.pinimg.com/564x/58/30/61/5830619b934043f3877c46263ab2bf0c.jpg",
      "ref_url": "https://www.bhg.com/decorating/makeovers/before-and-after/modern-glam-kitchen-makeover/",
      "rooms": [3],
      "styles": [4, 6],
      "direction": "portrait",
      "designed_by": "Better Homes & Gardens"
    },
    {
      "uuid": "17726073-3c78-4027-8f39-d6bbf63db0d0",
      "ref_img": "https://briahammelinteriors.com/wp-content/uploads/2019/05/BH_Afton_073-600x900.jpg",
      "ref_url": "https://briahammelinteriors.com/portfolio/the-afton-house/",
      "rooms": [2],
      "styles": [3, 5, 7, 10, 12],
      "direction": "portrait",
      "designed_by": "Bria Hammel Interiors"
    },
    {
      "uuid": "f784797e-2495-4d40-a021-78a11cb8fc4b",
      "ref_img": "https://briahammelinteriors.com/wp-content/uploads/2019/05/8677-Alvarado__035-600x840.jpg",
      "ref_url": "https://briahammelinteriors.com/portfolio/marianna-cottage/",
      "rooms": [2],
      "styles": [8, 2, 10],
      "direction": "portrait",
      "designed_by": "Bria Hammel Interiors"
    },
    {
      "uuid": "8ccbff53-1881-4d1d-b8b3-728e1b32ddcb",
      "ref_img": "https://images.squarespace-cdn.com/content/v1/53744d2fe4b0a52017d9e3d4/1545077984975-GBD66MTVYJLH49U941DX/ke17ZwdGBToddI8pDm48kCpX2mwG9slVUzQCwhOMrQF7gQa3H78H3Y0txjaiv_0fDoOvxcdMmMKkDsyUqMSsMWxHk725yiiHCCLfrh8O1z5QPOohDIaIeljMHgDF5CVlOqpeNLcJ80NK65_fV7S1UVDXM9yQ8sG6x3COIEUaadqpk9XPubC0H4MH9Az_c7nPqIjSxZ2rgD2_Fw9U6DWfsg/kitchen_dining-reedits-001.jpg?format=2500w",
      "ref_url": "https://www.studio-mcgee.com/portfolio/2018/12/17/modern-lakehouse",
      "rooms": [3],
      "styles": [3, 5],
      "direction": "landscape",
      "designed_by": "Studio McGee"
    },
    {
      "uuid": "49d0a243-61c0-4e6c-b1c8-e5533de05002",
      "ref_img": "https://images.squarespace-cdn.com/content/v1/53744d2fe4b0a52017d9e3d4/1476136187589-A19YASOJS47PIRA4NTNT/ke17ZwdGBToddI8pDm48kIDSkmbexpTaLIGDZ-tlP2gUqsxRUqqbr1mOJYKfIPR7LoDQ9mXPOjoJoqy81S2I8PaoYXhp6HxIwZIk7-Mi3Tsic-L2IOPH3Dwrhl-Ne3Z2TYhLWFNzgSGYP7gjrTPPXptBZzRFbwKXeOtoDMFFY59kOpdljO7Z-5qh0zg85Jnj/22nd%2BStreet%2BProject%2B%7C%2BStudio%2BMcGee.jpg?format=1500w",
      "ref_url": "https://www.studio-mcgee.com/portfolio/2016/10/10/22nd-street-project",
      "rooms": [3],
      "styles": [2, 6],
      "direction": "portrait",
      "designed_by": "Studio McGee"
    }
  ]
}
